<svg width="30" height="27" viewBox="0 0 30 27" fill="none" xmlns="http://www.w3.org/2000/svg">
<path d="M9.30998 0.141541C4.22005 0.141541 0.792725 4.80263 0.792725 9.72249C0.792725 13.7578 2.4686 16.8241 4.97841 19.2582C7.48822 21.6924 10.7819 23.6348 14.3822 25.966L15.1565 26.4751L15.9308 25.966C19.531 23.6348 22.8247 21.6924 25.3345 19.2582C27.8443 16.8241 29.5202 13.7578 29.5202 9.72249C29.5202 4.80263 26.0929 0.141541 21.003 0.141541C18.5004 0.141541 16.4915 1.13136 15.1565 2.13239C13.8214 1.13136 11.8125 0.141541 9.30998 0.141541ZM9.30998 3.03732C11.4915 3.03732 13.5059 4.40134 14.1353 5.03946L15.1565 6.08014L16.1776 5.03946C16.807 4.40138 18.8215 3.03732 21.003 3.03732C24.3487 3.03732 26.6475 6.10743 26.6475 9.72249C26.6475 13.0029 25.4892 15.1005 23.3483 17.1769C21.372 19.0936 18.4563 20.9026 15.1565 23.025C11.8566 20.9026 8.94099 19.0936 6.96465 17.1769C4.82376 15.1005 3.66547 13.0029 3.66547 9.72249C3.66547 6.10743 5.9642 3.03732 9.30998 3.03732Z" fill="#C4C4C4"/>
</svg>
