<svg width="33" height="29" viewBox="0 0 33 29" fill="none" xmlns="http://www.w3.org/2000/svg">
<path d="M28.3854 0.000244141H4.46626C3.98827 0.00024104 3.51495 0.087751 3.07335 0.257777C2.63174 0.427803 2.23049 0.677015 1.89249 0.991184C1.5545 1.30535 1.28639 1.67833 1.10348 2.08881C0.920558 2.49929 0.826413 2.93924 0.826416 3.38355V25.6169C0.826411 26.0612 0.920556 26.5012 1.10347 26.9116C1.28639 27.3221 1.5545 27.6951 1.89249 28.0093C2.23048 28.3235 2.63173 28.5727 3.07334 28.7427C3.51495 28.9127 3.98826 29.0002 4.46626 29.0002H28.3854C29.3508 29.0002 30.2766 28.6438 30.9592 28.0093C31.6418 27.3748 32.0253 26.5142 32.0253 25.6169V3.38355C32.0253 2.93924 31.9312 2.49929 31.7483 2.0888C31.5653 1.67832 31.2972 1.30535 30.9592 0.991179C30.6212 0.67701 30.22 0.427798 29.7784 0.257774C29.3368 0.0877487 28.8634 0.000239912 28.3854 0.000244141ZM7.60353 23.7259C7.1673 23.7259 6.74086 23.6056 6.37815 23.3804C6.01544 23.1551 5.73273 22.8349 5.56579 22.4603C5.39885 22.0857 5.35518 21.6734 5.44028 21.2757C5.52538 20.8781 5.73544 20.5127 6.0439 20.226C6.35236 19.9393 6.74537 19.7441 7.17322 19.6649C7.60106 19.5858 8.04454 19.6264 8.44756 19.7816C8.85058 19.9368 9.19505 20.1996 9.4374 20.5367C9.67975 20.8739 9.80911 21.2702 9.8091 21.6757C9.80909 22.2194 9.57672 22.7409 9.16309 23.1254C8.74947 23.5098 8.18848 23.7258 7.60353 23.7259ZM7.60353 16.5504C7.1673 16.5504 6.74086 16.4301 6.37815 16.2049C6.01544 15.9796 5.73274 15.6594 5.5658 15.2848C5.39886 14.9102 5.35518 14.498 5.44028 14.1003C5.52538 13.7026 5.73545 13.3373 6.04391 13.0506C6.35237 12.7638 6.74537 12.5686 7.17322 12.4895C7.60106 12.4104 8.04454 12.451 8.44756 12.6061C8.85058 12.7613 9.19505 13.0241 9.4374 13.3612C9.67975 13.6984 9.80911 14.0948 9.8091 14.5002C9.80909 15.044 9.57672 15.5654 9.16309 15.9499C8.74947 16.3344 8.18848 16.5504 7.60353 16.5504ZM7.60353 9.37489C7.1673 9.37489 6.74087 9.25466 6.37816 9.02939C6.01545 8.80412 5.73274 8.48393 5.5658 8.10932C5.39886 7.7347 5.35518 7.32249 5.44028 6.9248C5.52538 6.52711 5.73544 6.1618 6.04389 5.87508C6.35235 5.58836 6.74534 5.3931 7.17319 5.31399C7.60103 5.23488 8.0445 5.27548 8.44753 5.43064C8.85055 5.58581 9.19502 5.84858 9.43738 6.18572C9.67974 6.52286 9.8091 6.91924 9.8091 7.32472C9.8091 7.86845 9.57673 8.38991 9.16311 8.77439C8.74948 9.15887 8.18849 9.37488 7.60353 9.37489ZM26.351 22.7008H14.2203C13.928 22.7004 13.648 22.5922 13.4415 22.4C13.235 22.2078 13.119 21.9473 13.119 21.6757C13.119 21.4041 13.235 21.1436 13.4415 20.9514C13.648 20.7592 13.928 20.651 14.2203 20.6506H26.351C26.6432 20.651 26.9233 20.7592 27.1298 20.9514C27.3363 21.1436 27.4522 21.4041 27.4522 21.6757C27.4522 21.9473 27.3363 22.2078 27.1298 22.4C26.9233 22.5922 26.6432 22.7004 26.351 22.7008ZM26.351 15.5253H14.2203C13.928 15.5249 13.648 15.4167 13.4415 15.2245C13.235 15.0323 13.119 14.7718 13.119 14.5002C13.119 14.2286 13.235 13.9681 13.4415 13.7759C13.648 13.5837 13.928 13.4755 14.2203 13.4751H26.351C26.6432 13.4755 26.9233 13.5837 27.1298 13.7759C27.3363 13.9681 27.4522 14.2286 27.4522 14.5002C27.4522 14.7718 27.3363 15.0323 27.1298 15.2245C26.9233 15.4167 26.6432 15.5249 26.351 15.5253ZM26.351 8.34982H14.2203C13.9278 8.34982 13.6473 8.24182 13.4405 8.04957C13.2336 7.85733 13.1174 7.5966 13.1174 7.32473C13.1174 7.05286 13.2336 6.79213 13.4405 6.59989C13.6473 6.40765 13.9278 6.29965 14.2203 6.29965H26.351C26.6435 6.29965 26.924 6.40765 27.1308 6.59989C27.3376 6.79213 27.4538 7.05286 27.4538 7.32473C27.4538 7.5966 27.3376 7.85733 27.1308 8.04957C26.924 8.24182 26.6435 8.34982 26.351 8.34982Z" fill="#052C46"/>
</svg>
