<svg width="28" height="25" viewBox="0 0 28 25" fill="none" xmlns="http://www.w3.org/2000/svg">
<path d="M16.1366 24.1545L26.6893 13.8414C27.4825 13.0654 27.4825 11.6924 26.6893 10.9136L16.1366 0.600551C15.3125 -0.202925 13.9812 -0.200173 13.1627 0.608806C12.3443 1.41779 12.3443 2.72205 13.1683 3.52828L20.111 10.3165L2.29891 10.3165C1.13573 10.3165 0.196777 11.2411 0.196777 12.3803C0.196777 13.5194 1.13573 14.444 2.29891 14.444L20.111 14.444L13.1683 21.2295C12.7563 21.634 12.5517 22.1623 12.5517 22.6934C12.5517 23.2189 12.7563 23.7472 13.1627 24.149C13.9812 24.9552 15.3125 24.958 16.1366 24.1545Z" fill="#052C46"/>
</svg>
