{
	"flex-layout.row#footer-duvidas-chat": {
		"children": [
            "flex-layout.row#duvidas"
            /*"rich-text#chat"*/
        ],
		"props": {
			"blockClass": ["footer-bottom-row","footer-bottom-row-duvidas"]
		}
	},

	"flex-layout.row#duvidas": {
        "children": ["image#img-duvidas", "flex-layout.col#duvidas"]
    },
	"flex-layout.col#duvidas": {
        "children": ["rich-text#duvidas", "link#duvidas-tel"],
		"props":{
			"width":"75%"
		}
    },

	"image#img-duvidas": {
		"props": {
		"src": "assets/svg/duvidas.svg",
		"width": "50",
		"link": "/",
		"alt": "Bela Modas Dúvidas",
		"title": "Bela Modas Dúvidas",
		"blockClass": "duvidas-bottom"
		}
  	},
	"rich-text#duvidas":{
		"props": {
		  "textAlignment": "LEFT",
				"textPosition": "LEFT",
				"text": "Dúvidas",
		  "textColor": "base",
		  "blockClass": "duvidas-bottom-text"
		  }
	},
	"link#duvidas-tel": {
		"props": {
		  "href": "https://api.whatsapp.com/send?phone=557534717533&amp;text=Olá%2C%20Bela%20Modas!%20Tenho%20uma%20dúvida%20referente%20ao%20site.",
		  "label": "(75) 3471-7533",
		  "target":"_blank",
		  "blockClass": "duvidas-bottom-tel"
		}
	},
	"rich-text#chat":{
		"props": {
		  "textAlignment": "CENTER",
				"textPosition": "CENTER",
				"text": "[CHAT](/chat)",
		  "textColor": "base",
		  "blockClass": "button-chat"
		  }
	},

    "flex-layout.row#footer-bottom": {
		"children": [
            "flex-layout.col#how-to-pay",
            "flex-layout.col#seals"
        ],
		"props": {
			"blockClass": "footer-bottom-row"
		}
	},
    "flex-layout.col#how-to-pay": {
        "children": ["rich-text#how-to-pay-title", "flex-layout.row#footer-pagamento"],
		"props":{
			"blockClass":"col-pagamento"
		}
    },
    "flex-layout.col#seals": {
        "children": ["rich-text#seals-title", "image#selo-pci"]
    },

    "rich-text#how-to-pay-title": {
		"props": {
			"textAlignment": "LEFT",
			"textPosition": "LEFT",
			"text": "#### Como pagar",
			"textColor": "c-on-base--inverted"
		}
	},
	"flex-layout.row#footer-pagamento":{
		"children": [
			"image#visa",
			"image#mastercard",
			"image#amex",
			"image#hipercard",
			"image#elo",
			"image#boleto"
		],
		"props": {
			"blockClass": "footer-bottom-pagamentos"
		}
	},
	"image#visa": {
		"props": {
		"src": "assets/svg/Visa.svg",
		"width": "75px",
		"link": "",
		"alt": "visa",
		"title": "visa",
		"blockClass": "footer-meios-pagamentos"
		}
  	},
	  "image#mastercard": {
		"props": {
		"src": "assets/svg/Mastercard.svg",
		"width": "75px",
		"link": "",
		"alt": "mastercard",
		"title": "mastercard",
		"blockClass": "footer-meios-pagamentos"
		}
  	},
	  "image#amex": {
		"props": {
		"src": "assets/svg/Amex.svg",
		"width": "75",
		"link": "",
		"alt": "amex",
		"title": "amex",
		"blockClass": "footer-meios-pagamentos"
		}
  	},
	"image#hipercard": {
		"props": {
		"src": "assets/svg/Hipercard.svg",
		"width": "75",
		"link": "",
		"alt": "hipercard",
		"title": "hipercard",
		"blockClass": "footer-meios-pagamentos"
		}
  	},
	"image#elo": {
		"props": {
		"src": "assets/svg/Elo.svg",
		"width": "75",
		"link": "",
		"alt": "elo",
		"title": "Elo",
		"blockClass": "footer-meios-pagamentos"
		}
  	},
	"image#boleto": {
		"props": {
		"src": "assets/svg/Boleto.svg",
		"width": "75",
		"link": "",
		"alt": "Boleto",
		"title": "Boleto",
		"blockClass": "footer-meios-pagamentos"
		}
  	},
	"accepted-payment-methods": {
		"props": {
			"paymentMethods": ["mastercard", "visa", "diners club"],
			"showInColor": true
		}
  	},
    "rich-text#seals-title": {
		"props": {
			"textAlignment": "LEFT",
			"textPosition": "LEFT",
			"text": "#### Loja segura",
			"textColor": "c-on-base--inverted"
		}
	},
	"powered-by": {
		"props": {
			"showInColor": true
		}
	},
	"image#selo-pci": {
		"props": {
		"src": "https://io.vtex.com.br/front-libs/assets/pci/vtex-pci-100.png",
		"maxHeight": "62",
		"link": "http://secure.vtex.com/?an=tfcvb6",
		"alt": "Loja Segura - VTEX PCI Certified",
		"title": "Loja Segura - VTEX PCI Certified"
		}
  }
}