{
    "flex-layout.row#footer-content": {
		"children": [
			"flex-layout.col#left-content", 
            "flex-layout.col#footer-menu1",
            "flex-layout.col#footer-menu2",
            "flex-layout.col#footer-menu3"
        ],
		"props": {
			"blockClass": "footer-content-row"
		}
	},
	"flex-layout.col#left-content": {
		"children": ["image#logo-bottom","flex-layout.row#contato-social"],
		"props": {
			"width":"28%",
			"blockClass":"left-content"
		}
	},
	"image#logo-bottom": {
		"props": {
		"src": "assets/logo/bottom-logo.png",
		"width": "213",
		"link": "/",
		"alt": "Bela Modas",
		"title": "Bela Modas",
		"blockClass": "logo-bottom"
		}
  	},
	"flex-layout.row#contato-social": {
		"children": [
            /*"image#contato-twitter",
            "image#contato-facebook",*/
			"image#contato-instagram"
        ],
		"props": {
			"blockClass": "footer-row-social"

		}
	},
	"image#contato-instagram": {
		"props": {
		"src": "assets/images/bottom-instagram.png",
		"maxHeight": "74",
		"link": {
			"url":"https://www.instagram.com/belamodass/",
			"openNewTab":true
		},
		"alt": "Instagram"
		}
  	},
	
    "flex-layout.col#footer-menu1": {
        "children": ["rich-text#footer-menu-items1"],
		"props": {
			"width":"20%"
		}
    },
    "flex-layout.col#footer-menu2": {
        "children": ["rich-text#footer-menu-items2"],
		"props": {
			"width":"20%"
		}
    },
    "flex-layout.col#footer-menu3": {
        "children": ["rich-text#footer-menu-items3","flex-layout.row#footer-duvidas-chat","flex-layout.row#footer-bottom"],
		"props": {
			"width":"32%",
			"blockClass":"right-content"
		}
    },
    "rich-text#footer-menu-items1": {
		"props": {
			"textAlignment": "LEFT",
			"textPosition": "LEFT",
			"text": "#### Links Rápidos\n  [Sobre Nós](/sobre-nos) \n[Contato](/contato) \n [Login/Cadastro](/account)",
			"textColor": "c-on-base--inverted"
		}
	},
    "rich-text#footer-menu-items2": {
		"props": {
			"textAlignment": "LEFT",
			"textPosition": "LEFT",
			"text": "#### Conta\n[Minha Conta](/account)\n[Pedidos](/account#/orders)\n [Política de Envio](/troca-e-devolucao)\n[Dúvidas Frequentes](/duvidas-frequentes)\n[Política de Privacidade](/politica-de-privacidade) \n[Meu carrinho](/checkout/#/cart)",
			"textColor": "c-on-base--inverted"
		}
	},
    "rich-text#footer-menu-items3": {
		"props": {
			"textAlignment": "LEFT",
			"textPosition": "LEFT",
			"text": "#### Atendimento \n Segunda a Sexta: das 09h às 18h \n Sábado: das 09h às 13h  \n [atendimentobelamodas@gmail.com](mailto:atendimentobelamodas@gmail.com)",
			"textColor": "c-on-base--inverted"
		}
	}
}