{
  "store.custom#about-us": {
    "blocks": ["flex-layout.row#about-us-top"]
  },
  "flex-layout.row#about-us-top": {
    "children": [
      "flex-layout.col#text-about-us"
    ],
    "props": {
      "blockClass": "pg-institucional"
    }
  },
  "flex-layout.col#text-about-us": {
    "children": [
      "rich-text#about-title",
      "rich-text#about-content-top"
    ],
    "props": {
      "preventVerticalStretch": true
    }
  },
  "rich-text#about-title": {
    "props": {
      "textPosition": "CENTER",
      "text": "# Quem Somos",
      "blockClass": "titulosvitrine"
    }
  },
  "rich-text#about-content-top": {
    "props": {
      "textPosition": "LEFT",
      "text": "Mais do que moda! A Bela Modas nasceu do desejo de fazer toda mulher se sentir realizada com seu look. Acreditamos que a roupa que você veste fala muito sobre quem você é. E nós sabemos que toda mulher é especial! \n\n É pensado nisso que a Bela escolhe cuidadosamente suas coleções, trazendo sempre o que há de melhor na tendência de cada estação a um preço inacreditável! \n\n Dê um tour pelo nosso site e descubra porque as brasileiras estão se tornando 'belinhas'. \n\n Estamos aqui para acordar a Bela que existe dentro de você."
    }
  }
}