{
    "store.custom#return-policy": {
      "blocks": ["flex-layout.row#return-policy-top"]
    },
    "flex-layout.row#return-policy-top": {
      "children": [
        "flex-layout.col#text-return-policy"
      ],
      "props": {
        "blockClass": "pg-institucional"
      }
    },
    "flex-layout.col#text-return-policy": {
      "children": [
        "rich-text#return-policy-title",
        "rich-text#return-policy-content-top",
        "rich-text#return-policy-content-2",
        "rich-text#return-policy-content-3"
      ],
      "props": {
        "preventVerticalStretch": true
      }
    },
    "rich-text#return-policy-title": {
      "props": {
        "textPosition": "CENTER",
        "text": "# Política de Troca e Devolução",
        "blockClass": "titulosvitrine"
      }
    },
    "rich-text#return-policy-content-top": {
      "props": {
        "textPosition": "LEFT",
        "text": "**ENVIO** \n\n Após a confirmação do pagamento, os produtos serão enviados pelos Correios ou por transportadora terceirizada contratada pela BELA MODAS. \n\n O prazo de envio e o valor do frete variam de acordo com o CEP do endereço de entrega do pedido. O valor será informado após a escolha do(s) produto(s) e confirmação do CEP de entrega. O prazo começa a ser contado a partir da confirmação de pagamento do pedido pela instituição financeira, que pode variar de acordo com a forma de pagamento escolhida.\n\n Acompanhamento do pedido \n\n Tão logo o pagamento seja confirmado pela instituição financeira, o pedido será faturado e a nota fiscal eletrônica será enviada por e-mail. \n\n Um e-mail de confirmação será enviado então com as informações sobre a entrega."
      }
    },
    "rich-text#return-policy-content-2": {
      "props": {
        "textPosition": "LEFT",
        "text": "\n\n **TROCAS E DEVOLUÇÕES** \n\n **TROCAS** \n\n No ato do recebimento da compra, verifique as condições da embalagem. Recuse o recebimento caso: \n\n – A embalagem estiver aberta ou avariada; \n\n – O produto esteja em desacordo com o pedido; \n\n – O pedido esteja incompleto; \n\n Para solicitar uma troca, o cliente deverá informar o motivo pelo qual deseja realizar a troca diretamente à CENTRAL DE ATENDIMENTO pelo e-mail atendimentobelamodas@gmail.com no prazo de até 30 dias após o recebimento do produto, de acordo com as condições estabelecidas pelo Código de Defesa do Consumidor. É importante ressaltar que produtos comprados na loja online não poderão ser trocados nas lojas físicas. \n\n O produto não pode ter sido usado, deve estar sem odores, manchas e sem quaisquer alterações. A embalagem original deve acompanhar o produto (saco protetor em plástico ou tecido, com logotipo da marca). É essencial que a NOTA FISCAL (original ou cópia) acompanhe o produto a ser trocado. \n\n O procedimento de troca terá início após o recebimento do produto juntamente com a nota fiscal e a checagem de suas condições. \n\n Caso o produto escolhido para a troca tenha valor maior do que o produto original, o cliente deverá arcar com o pagamento da diferença. Caso o produto escolhido pelo cliente para a troca tenha valor menor do que o produto original, a diferença do valor será estornada ao cliente, seguindo o mesmo meio de pagamento utilizado na compra original ou em forma de vale compras, ficando a escolha a critério do cliente. \n\n Em caso de trocas de mercadorias adquiridas durante uma promoção, liquidação ou “Sale”, o valor de crédito será exatamente o valor pago pelo produto no pedido original, ou seja, o valor referente ao desconto oriundo da promoção não será abatido do valor da nova peça trocada. Exemplo: Na data da compra a peça estava com desconto de 50% sendo que o valor original da peça é de R$ 500,00 e o valor da peça com desconto é de R$ 250,00, em situação de cancelamento, troca por crédito ou outra peça, o valor de troca será de R$ 250,00. \n\n Em um eventual caso de troca por defeito, o cliente tem o prazo legal de até 90 dias após o recebimento do produto para solicitar a troca, conforme estabelecido no artigo 26, Inciso I do Código de Defesa do Consumidor. O produto deverá ser enviado à BELA MODAS para análise e do defeito acusado pelo cliente. No caso de constatação de defeito, a BELA MODAS enviará um novo produto em até 30 dias úteis para o endereço indicado pelo cliente. Caso não haja estoque do produto disponível, o cliente deverá optar pela escolha de um novo produto, devolução do valor em forma de vale compras ou a devolução do valor do produto adicionado ao valor de frete, seguindo o mesmo meio de pagamento utilizado na compra. \n\n Caso o produto escolhido para a troca tenha valor maior do que o produto original, o cliente deverá arcar com o pagamento da diferença. Caso o produto escolhido pelo cliente para a troca tenha valor menor do que o produto original, a diferença do valor será estornada ao cliente, seguindo o mesmo meio de pagamento utilizado na compra original ou em forma de vale compras, ficando a escolha a critério do cliente. \n\n **DEVOLUÇÕES** \n\n Conforme o Artigo 49 do Código de Defesa do Consumidor, o cliente tem até 7 (sete) dias corridos, contados a partir da data de recebimento do produto para comunicar a intenção da devolução por arrependimento do produto à CENTRAL DE ATENDIMENTO pelo e-mail atendimentobelamodas@gmail.com. \n\n O estorno do valor será realizado imediatamente após o recebimento do produto no centro de distribuição, desde que não sejam constatados violação da embalagem original ou indício de uso do produto, e o produto esteja acompanhado da nota fiscal. \n\n O estorno será realizado seguindo o mesmo meio de pagamento utilizado na compra, lembrando que no caso de estorno de compras realizadas com cartões de crédito, o valor pode aparecer em até duas faturas subsequentes, de acordo com a política determinada pela operadora do cartão de crédito do cliente. \n\n No caso de produtos duráveis com defeitos de fabricação, o cliente tem o prazo legal de até 90 dias após o recebimento do produto para solicitar a troca, conforme estabelecido no artigo 26, incisos I do Código de Defesa do Consumidor. O produto deverá ser enviado para a BELA MODAS para análise e constatação do defeito acusado pelo cliente. No caso de constatação de defeito, a BELA MODAS enviará um novo produto em até 30 dias para o endereço indicado pelo cliente. Caso não haja estoque do produto disponível, o cliente deverá optar entre a escolha de um novo produto, devolução do valor em forma de vale compras ou a devolução do valor do produto adicionado ao valor de frete, seguindo o mesmo meio de pagamento utilizado na compra. Caso o produto escolhido para a troca tenha valor maior do que o produto original, o cliente deverá arcar com o pagamento da diferença. Caso o produto escolhido pelo cliente para a troca tenha valor menor do que o produto original, a diferença do valor será estornada ao cliente, seguindo o mesmo meio de pagamento utilizado na compra original ou em forma de vale compras, ficando a escolha a critério do cliente. \n\n Caso a BELA MODAS entenda que o produto enviado para troca ou devolução devolvido não compreende os critérios necessários para a troca ou devolução citados acima, o site fica dispensado de aceitar a devolução ou fazer a troca. A BELA MODAS pode, então, reenviar o produto ao cliente sem consulta prévia, acompanhado da justificativa do motivo da recusa. \n\n Esta política se estende a todos os produtos disponíveis neste site."
      }
    },
    "rich-text#return-policy-content-3": {
      "props": {
        "textPosition": "LEFT",
        "text": "\n\n **CENTRAL DE ATENDIMENTO** \n\n Em caso de dúvidas ou sugestões entre em contato através do e-mail atendimentobelamodas@gmail.com."
      }
    }
  }