{
  "store.product": {
    "children": [
      "flex-layout.row#product-breadcrumb",
      "flex-layout.row#product-main",
     /* "flex-layout.row#product-disclosure-desc-all",
      "flex-layout.row#product-disclosure-ficha-all",
      "flex-layout.row#product-disclosure-avaliacao-all",*/
      "flex-layout.row#view-buy"
      /*"list-context.image-list#bannerfaixa"*/
    ]
  },
  "flex-layout.row#product-breadcrumb": {
    "props": {
      "marginTop": 4
    },
    "children": ["breadcrumb"]
  },
  "breadcrumb": {
    "props": {
      "showOnMobile": true
    }
  },
  "flex-layout.row#product-main": {
    "props": {
      "colGap": 7,
      "rowGap": 7,
      "marginTop": 4,
      "marginBottom": 7,
      "paddingTop": 7,
      "paddingBottom": 7,
      "blockClass": "product-main-container"
    },
    "children": ["flex-layout.col#product-image", "flex-layout.col#right-col"]
  },
  "flex-layout.col#product-image": {
    "props": {
      "width": "50%",
      "rowGap": 0
    },
    "children": ["stack-layout#savings-product-image"]
  },
  "stack-layout#savings-product-image": {
    "children": ["product-images", "product-spot-price-savings"],
    "props": {
      "blockClass": "savings-pdp"
    }
  },
  "product-spot-price-savings": {
    "props": {
      "message": "-{spotPriceSavingsPercentage}"
    }
  },
  "product-images": {
    "props": {
      "displayThumbnailsArrows": true,
      "thumbnailsOrientation": "horizontal",
      "showPaginationDots":false
    }
  },
  "flex-layout.col#right-col": {
    "props": {
      "preventVerticalStretch": true,
      "rowGap": 0
    },
    "children": [
      "flex-layout.row#product-name-list",
      /*"product-rating-summary",
      "product-identifier.product",*/
      "product-installments#sumary-price-installments",
      "product-price#product-details",
      //"product-description#desc1",
      //"link#vermais-prod",
      "sku-selector",
      "modal-trigger#tabelamedidas",
      "flex-layout.row#buy-button",
      //"vtex.menu@2.x:menu#descricao-completa",
      "rich-text#title-descricao",
      "product-description#desc-completa",
      "share#default"
      /*"rich-text#title-shipping",
      "shipping-simulator"*/
    ]
  },
  "sku-selector": {
    "props": {
      "hideImpossibleCombinations": false,
      "initialSelection": "empty",
      "thumbnailImage": "principal"
    }
  },
 "flex-layout.row#product-name-list": {
    "children": ["vtex.store-components:product-name","add-to-list-btn"],
    "props":{
      "blockClass":"flex-name-list"
    }
  },

  /*"flex-layout.col#brand": {
    "children": ["vtex.store-components:product-brand"]
  },*/
 
  "product-installments#sumary-price-installments":{
    "props":{
      "blockClass":"price-install-prod",
      "hasInterest":false
    }
  },
  "flex-layout.row#list-price-range-desc":{
    "children": ["product-list-price-range","product-spot-price-savings"],
    "props":{
      "blockClass":"spot-price-flex",
      "hasInterest":false
    }
  },
  "product-price#product-details": {
    "props": {
      "showInstallments": true,
      "showSavings": true,
      "labelSellingPrice": null,
      "labelListPrice": null
    }
  },
  "share#default": {
    "props": {
      "social": {
        "WhatsApp": true
      },
      "blockClass":"shareProduct",
      "width":"30%"
    }
  },
  
  "flex-layout.row#qnt": {
    "props": {
      "marginTop": 7,
      "marginBottom": 7,
      "preventVerticalStretch": true,
      "blockClass":"row-qtd"
    },
    "children": ["rich-text#quantidade","flex-layout.row#product-quantity"]
  },
  "rich-text#quantidade":{
    "props": {
      "textAlignment": "CENTER",
      "textPosition": "LEFT",
      "text": "Quantidade",
      "textColor": "base",
      "blockClass": "texto-qtd",
      "width":"20%"
      }
  },
  "flex-layout.row#product-quantity": {
    "children": ["product-quantity"]
  },

  "flex-layout.row#buy-button": {
    "children": ["add-to-cart-button#sumary-prod"],
    "props": {
      "marginBottom": 3,
      "blockClass":"btn-comprar-prod",
      "width":"50%"
    }
  },
  "add-to-cart-button#sumary-prod":{
    "props": {
      "blockClass": "add-cart-prod",
      "text":"Comprar"
    }
  },

  "product-quantity": {
    "props": {
      "width":"30%",
      "showLabel": false
    }
  },

  "rich-text#title-descricao": {
    "props": {
      "textAlignment": "LEFT",
      "textPosition": "LEFT",
      "text": "Descrição do Produto",
      "textColor": "c-on-base--inverted",
      "blockClass": "title-desc-prod",
      "marginTop": 10,
      "paddingTop": 10
    }
  },
  "product-description#desc1":{
    "props":{
      "collapseContent":false,
      "blockClass":"desc-prod-main-short"
    }
  },
  "product-description#desc-completa":{
    "props":{
      "collapseContent":false,
      "blockClass":"desc-prod-main"
    }
  },
  "link#vermais-prod": {
    "props": {
      "href": "#descricao-anchor",
      "label": "Ver Mais",
      "blockClass":"btn-ver-mais-prod"
    }
  },
  "vtex.menu@2.x:menu#descricao-completa": {
    "props": {
      "experimentalOptimizeRendering": true
    },
    "children": [
      "menu-item#descricao-comp"
    ]
  },
 "menu-item#descricao-comp": {
    "props": {
      "id": "descricao-anchor",
      "blockClass":"desc-completa-none",
      "type": "custom",
      "iconId": null,
      "highlight": false,
      "itemProps": {
        "type": "internal",
        "href": "#descricao-anchor",
        "noFollow": false,
        "tagTitle": "Descrição do Produto",
        "text": "Descrição do Produto"
      }
    }
  },
  
  "rich-text#title-shipping": {
    "props": {
      "textAlignment": "LEFT",
      "textPosition": "LEFT",
      "text": "Calcule o valor de frete",
      "textColor": "c-on-base--inverted",
      "blockClass": "title-frete",
      "marginTop": 10,
      "paddingTop": 10
    }
  },

  /*DISCLOSURE PRODUTO*/
  "flex-layout.row#product-disclosure-desc-all": {
    "children": [
      "disclosure-layout#disclosure-produto"
    ],
    "props":{
      "blockClass":"desc-prod-all-main",
      "preventVerticalStretch": true
    }
  },

  "disclosure-layout#disclosure-produto": {
    "children": ["disclosure-trigger#descricao", "disclosure-content#descricao"],
    "props":{
      "blockClass":"content-all-disclosure-prod"
    }
  },
  "disclosure-trigger#descricao": {
    "children": ["flex-layout.row#product-descricao","disclosure-state-indicator"],
    "props": {
			"blockClass": "disclosure-title-produto",
			"as": "div"
		}
  },
  "flex-layout.row#product-descricao": {
    "children": [
      "image#icon-descricao",
      "rich-text#descricao"
    ],
    "props":{
      "collapseContent":true,
      "blockClass":"desc-prod-main",
      "width":"100%"
    }
  },
  "disclosure-content#descricao": {
    "children": ["product-description"],
    "props":{
      "blockClass":"disclosure-content-produto"
    }
  },
  "image#icon-descricao": {
		"props": {
		"src": "assets/svg/icon-desc-prod.svg",
		"width": "30px",
		"link": "",
		"alt": "Descrição Produto",
		"title": "Descrição Produto"
		}
  	},
  "rich-text#descricao": {
    "props": {
      "text": "Descrição do Produto",
      "width":"95%",
      "blockClass":"title-disclosure-prod"
    }
  },

  "flex-layout.row#product-disclosure-ficha-all": {
    "children": [
      "disclosure-layout#disclosure-produto-ficha"
    ],
    "props":{
      "blockClass":"desc-prod-all-main",
      "preventVerticalStretch": true
    }
  },

  "disclosure-layout#disclosure-produto-ficha": {
    "children": ["disclosure-trigger#ficha", "disclosure-content#ficha"],
    "props":{
      "blockClass":"content-all-disclosure-prod"
    }
  },
  "disclosure-trigger#ficha": {
    "children": ["flex-layout.row#product-ficha","disclosure-state-indicator"],
    "props": {
			"blockClass": "disclosure-title-produto",
			"as": "div"
		}
  },
  "flex-layout.row#product-ficha": {
    "children": [
      "image#icon-ficha",
      "rich-text#ficha"
    ],
    "props":{
      "collapseContent":true,
      "blockClass":"desc-prod-main",
      "width":"100%"
    }
  },
  "disclosure-content#ficha": {
    "children": ["product-specification"],
    "props":{
      "blockClass":"disclosure-content-produto"
    }
  },
  "image#icon-ficha": {
		"props": {
		"src": "assets/svg/icon-ficha-prod.svg",
		"width": "30px",
		"link": "",
		"alt": "Ficha do Produto",
		"title": "Ficha do Produto"
		}
  	},
  "rich-text#ficha": {
    "props": {
      "text": "Ficha Técnica",
      "width":"95%",
      "blockClass":"title-disclosure-prod"
    }
  },

  "flex-layout.row#product-disclosure-avaliacao-all": {
    "children": [
      "disclosure-layout#disclosure-produto-avaliacao"
    ],
    "props":{
      "blockClass":"desc-prod-all-main",
      "preventVerticalStretch": true
    }
  },

  "disclosure-layout#disclosure-produto-avaliacao": {
    "children": ["disclosure-trigger#avaliacao", "disclosure-content#avaliacao"],
    "props":{
      "blockClass":"content-all-disclosure-prod"
    }
  },
  "disclosure-trigger#avaliacao": {
    "children": ["flex-layout.row#product-avaliacao","disclosure-state-indicator"],
    "props": {
			"blockClass": "disclosure-title-produto",
			"as": "div"
		}
  },
  "flex-layout.row#product-avaliacao": {
    "children": [
      "image#icon-avaliacao",
      "rich-text#avaliacao"
    ],
    "props":{
      "collapseContent":true,
      "blockClass":"desc-prod-main",
      "width":"100%"
    }
  },
  "disclosure-content#avaliacao": {
    "children": ["flex-layout.row#product-reviews"],
    "props":{
      "blockClass":"disclosure-content-produto"
    }
  },
  "image#icon-avaliacao": {
		"props": {
		"src": "assets/svg/icon-avaliacao-prod.svg",
		"width": "30px",
		"link": "",
		"alt": "Avaliações",
		"title": "Avaliações"
		}
  	},
  "rich-text#avaliacao": {
    "props": {
      "text": "Avaliações",
      "width":"95%",
      "blockClass":"title-disclosure-prod"
    }
  },
  "flex-layout.row#product-reviews": {
    "props": {
      "colGap": 5,
      "rowGap": 7,
      "marginTop": 4,
      "marginBottom": 7,
      "paddingTop": 7,
      "paddingBottom": 7,
      "blockClass": "product-reviews"
    },
    "children": ["flex-layout.col#reviews"]
  },
  "flex-layout.col#reviews": {
    "children": ["product-reviews"],
    "props": {
      "width": "100%"
    }
  },
  
  
//PRODUTOS QUEM VIU VIU TB

"flex-layout.row#view-buy": {
  "children": ["flex-layout.col#view-buy"],
  "props": {
    "blockClass": "pdp-view-buy"
  }
},
"flex-layout.col#view-buy": {
  "children": ["shelf.relatedProducts#view-buy"]
},
"shelf.relatedProducts#view-buy": {
  "blocks": ["product-summary.shelf#shelfpadrao"],
  "props": {
    "recommendation": "view",
    "productList": {
      "maxItems": 4,
      "itemsPerPage": 4,
      "titleText": "Quem viu, viu também"
    },
    "blockClass": "titulosvitrine"
  }
},
/*Modal tabela de medidas*/
"modal-trigger#tabelamedidas": {
  "children": [
    "rich-text#tabelamedidas",
    "modal-layout#tabelamedidas"
  ]
},
"rich-text#tabelamedidas": {
  "props": {
    "text": "Tabela de Medidas",
    "blockClass": "link-tabela-medidas"
  }
},
"modal-layout#tabelamedidas": {
  "children": [
    "image#img-tabelamedidas"
  ]
},
"image#img-tabelamedidas": {
  "props": {
  "src": "assets/banners/tabela-medidas.png",
  "width": "708",
  "link": "/",
  "alt": "Bela Modas Tabela de Medidas",
  "title": "Bela Modas Tabela de Medidas",
  "blockClass": "img-tabela-medidas"
  }
  }

}